{
  "connection_limit": {
    "description": [
      "How many concurrent connections the role can make"
    ],
    "type": "int"
  },
  "createdb": {
    "default": false,
    "description": [
      "Whether role can create new databases"
    ],
    "type": "bool"
  },
  "createrole": {
    "default": false,
    "description": [
      "Whether role can create new roles"
    ],
    "type": "bool"
  },
  "drop_owned": {
    "default": false,
    "description": [
      "Drop all PostgreSQL's objects owned by the role being dropped"
    ],
    "type": "bool"
  },
  "encrypted_password": {
    "description": [
      "Role password, already encrypted"
    ],
    "no_log": true,
    "type": "str"
  },
  "in_roles": {
    "default": [],
    "description": [
      "List of roles to which the new role will be added as a new member"
    ],
    "elements": "str",
    "type": "list"
  },
  "inherit": {
    "default": true,
    "description": [
      "Let the role inherit the privileges of the roles it is a member of"
    ],
    "type": "bool"
  },
  "login": {
    "default": false,
    "description": [
      "Allow the role to log in"
    ],
    "type": "bool"
  },
  "name": {
    "description": [
      "Role name"
    ],
    "required": true,
    "type": "str"
  },
  "password": {
    "description": [
      "Role password"
    ],
    "no_log": true,
    "type": "str"
  },
  "pgpass": {
    "default": false,
    "description": [
      "Whether to add an entry in password file for this role"
    ],
    "type": "bool"
  },
  "reassign_owned": {
    "description": [
      "Reassign all PostgreSQL's objects owned by the role being dropped to the specified role name"
    ],
    "type": "str"
  },
  "replication": {
    "default": false,
    "description": [
      "Whether the role is a replication role"
    ],
    "type": "bool"
  },
  "state": {
    "choices": [
      "present",
      "absent"
    ],
    "default": "present",
    "description": [
      "Whether the role be present or absent"
    ]
  },
  "superuser": {
    "default": false,
    "description": [
      "Whether the role is a superuser"
    ],
    "type": "bool"
  },
  "validity": {
    "description": [
      "Date and time after which the role's password is no longer valid"
    ],
    "type": "str"
  }
}
